<?xml version="1.0" encoding="utf-8"?>
<!-- Generator: Adobe Illustrator 19.1.0, SVG Export Plug-In . SVG Version: 6.00 Build 0)  -->
<!DOCTYPE svg PUBLIC "-//W3C//DTD SVG 1.1//EN" "http://www.w3.org/Graphics/SVG/1.1/DTD/svg11.dtd">
<svg version="1.1" id="Layer_1" xmlns:sketch="http://www.bohemiancoding.com/sketch/ns"
	 xmlns="http://www.w3.org/2000/svg" xmlns:xlink="http://www.w3.org/1999/xlink" x="0px" y="0px" width="500px" height="500px"
	 viewBox="-388.5 0.5 500 500" style="enable-background:new -388.5 0.5 500 500;" xml:space="preserve">
<title>write13</title>
<desc>Created with Sketch.</desc>
<g id="Dashboard" sketch:type="MSPage">
	<g id="Dashboard-01" transform="translate(-483.000000, -122.000000)" sketch:type="MSArtboardGroup">
		<g id="write13" transform="translate(483.000000, 122.000000)" sketch:type="MSLayerGroup">
			<g id="Group" sketch:type="MSShapeGroup">
				<path id="Shape" d="M-66.7,439.8h-284.1V61h284.1v64.5l37.9-42.2V61.7c0-21.3-17.3-38.6-38.6-38.6H-350
					c-21.3,0-38.6,17.3-38.6,38.6v377.4c0,21.3,17.3,38.6,38.6,38.6h282.7c21.3,0,38.6-17.3,38.6-38.6V314.8L-66.7,357L-66.7,439.8
					L-66.7,439.8L-66.7,439.8z"/>
				<path id="Shape_1_" d="M-98.8,130.5c0-10.5-8.5-18.9-18.9-18.9h-182.2c-10.4,0-18.9,8.5-18.9,18.9c0,10.4,8.5,18.9,18.9,18.9
					h182.2C-107.3,149.4-98.8,140.9-98.8,130.5L-98.8,130.5z"/>
				<path id="Shape_2_" d="M-124.9,190.9h-175c-10.5,0-18.9,8.5-18.9,18.9c0,10.5,8.5,18.9,18.9,18.9h141L-124.9,190.9L-124.9,190.9
					z"/>
				<path id="Shape_3_" d="M-195.7,269.3h-104.2c-10.5,0-18.9,8.5-18.9,19c0,10.4,8.5,18.9,18.9,18.9h82.8L-195.7,269.3
					L-195.7,269.3z"/>
				<path id="Shape_4_" d="M-318.8,367.6c0,10.5,8.5,18.9,18.9,18.9h60.6c0.2-2.7,0.6-4.2,1.2-6.2l9.1-31.6h-71
					C-310.3,348.7-318.8,357.2-318.8,367.6L-318.8,367.6z"/>
				<path id="Shape_5_" d="M-34.6,132.3l-132.2,147.4l-10.2,11.4l72.8,65.3L-94,345L38.2,197.6l11.9-13.3L-22.6,119L-34.6,132.3
					L-34.6,132.3z M-40.9,198.9l-86.7,96.7c-1.1,1.2-2.6,2-4.2,2c-1.6,0.1-3.2-0.5-4.4-1.5l-4.3-3.9c-2.5-2.3-2.7-6.2-0.5-8.7
					l86.7-96.7c1.1-1.2,2.6-2,4.2-2c1.6-0.1,3.2,0.5,4.4,1.6l4.3,3.9C-38.8,192.5-38.6,196.3-40.9,198.9L-40.9,198.9z M-15.6,152.9
					l4.3,3.9c2.5,2.3,2.7,6.1,0.5,8.7l-1.1,1.2l-6.2,6.9l-0.3,0.3c-1.1,1.2-2.6,1.9-4.2,2c-1.6,0.1-3.2-0.5-4.4-1.6l-4.3-3.9
					c-1.2-1.1-1.9-2.6-2-4.2c-0.1-1.6,0.5-3.2,1.6-4.4l7.5-8.4C-22.1,150.9-18.2,150.7-15.6,152.9L-15.6,152.9z"/>
				<path id="Shape_6_" d="M-10.1,105l-5.5,6.1l72.8,65.3l5.5-6.1l12.4-13.8L2.3,91.2L-10.1,105z"/>
				<path id="Shape_7_" d="M111.4,106.8c-0.3-5.6-2.8-10.9-7-14.6l-41.3-37c-4.2-3.8-9.7-5.7-15.3-5.4c-5.6,0.3-10.9,2.8-14.6,7
					L8.9,83.9l72.8,65.3L106,122C109.7,117.9,111.7,112.4,111.4,106.8L111.4,106.8z M80.2,122L36.1,82.4l12.7-14.2l44.1,39.5
					L80.2,122L80.2,122z"/>
				<path id="Shape_8_" d="M-207.7,398.5c3,2.7,7.3,3.4,11,1.9l83.7-34.3l-72.8-65.3l-25,86.9C-211.9,391.6-210.7,395.8-207.7,398.5
					L-207.7,398.5z M-179.1,324l42.3,37.9l-32.9,13.5l-19.2-17.3L-179.1,324L-179.1,324z"/>
			</g>
		</g>
	</g>
</g>
</svg>
