<?xml version="1.0" encoding="utf-8"?>
<!-- Generator: Adobe Illustrator 19.1.0, SVG Export Plug-In . SVG Version: 6.00 Build 0)  -->
<!DOCTYPE svg PUBLIC "-//W3C//DTD SVG 1.1//EN" "http://www.w3.org/Graphics/SVG/1.1/DTD/svg11.dtd">
<svg version="1.1" id="Layer_1" xmlns:sketch="http://www.bohemiancoding.com/sketch/ns"
	 xmlns="http://www.w3.org/2000/svg" xmlns:xlink="http://www.w3.org/1999/xlink" x="0px" y="0px" width="500px" height="500px"
	 viewBox="-479 1 500 500" style="enable-background:new -479 1 500 500;" xml:space="preserve">
<title>settings</title>
<desc>Created with Sketch.</desc>
<g id="Page-1" sketch:type="MSPage">
	<g id="Core" transform="translate(-464.000000, -380.000000)" sketch:type="MSLayerGroup">
		<g id="settings" transform="translate(464.000000, 380.000000)" sketch:type="MSShapeGroup">
			<path id="Shape" d="M-44.7,277.4c0-7.5,2.5-15.1,2.5-25.1c0-10.1,0-17.6-2.5-25.1l52.8-42.7c5-5,5-10.1,2.5-15.1l-50.3-87.9
				c-2.5-2.5-7.5-5-15.1-2.5l-62.8,25.1c-12.6-10.1-27.6-17.6-42.7-25.1l-10.1-65.3c2.5-7.5-5-12.6-10.1-12.6h-100.5
				c-5,0-12.6,5-12.6,10.1l-10.1,67.8c-15.1,5-27.6,15.1-42.7,25.1l-60.3-25.1c-7.5-2.5-12.6,0-17.6,5l-50.3,87.9
				c-2.5,2.5,0,10.1,5,15.1l52.8,40.2c0,7.5-2.5,15.1-2.5,25.1c0,10.1,0,17.6,2.5,25.1l-52.8,42.7c-5,5-5,10.1-2.5,15.1l50.3,87.9
				c2.5,2.5,7.5,5,15.1,2.5l62.8-25.1c12.6,10.1,27.6,17.6,42.7,25.1l10.1,65.3c0,5,5,10.1,12.6,10.1h100.5c5,0,12.6-5,12.6-10.1
				l10.1-65.3c15.1-7.5,30.2-15.1,42.7-25.1l62.8,25.1c5,2.5,12.6,0,15.1-5l50.3-87.9c2.5-5,2.5-12.6-2.5-15.1L-44.7,277.4
				L-44.7,277.4z M-230.6,340.2c-47.7,0-87.9-40.2-87.9-87.9s40.2-87.9,87.9-87.9s87.9,40.2,87.9,87.9S-182.8,340.2-230.6,340.2
				L-230.6,340.2z"/>
		</g>
	</g>
</g>
</svg>
