<?xml version="1.0" encoding="utf-8"?>
<!-- Generator: Adobe Illustrator 19.1.0, SVG Export Plug-In . SVG Version: 6.00 Build 0)  -->
<!DOCTYPE svg PUBLIC "-//W3C//DTD SVG 1.1//EN" "http://www.w3.org/Graphics/SVG/1.1/DTD/svg11.dtd">
<svg version="1.1" id="Layer_1" xmlns:sketch="http://www.bohemiancoding.com/sketch/ns"
	 xmlns="http://www.w3.org/2000/svg" xmlns:xlink="http://www.w3.org/1999/xlink" x="0px" y="0px" width="500px" height="500px"
	 viewBox="-478.5 1 500 500" style="enable-background:new -478.5 1 500 500;" xml:space="preserve">
<title>Shape Copy 2</title>
<desc>Created with Sketch.</desc>
<g id="Admin" sketch:type="MSPage">
	<g id="Admin-002" transform="translate(-566.000000, -763.000000)" sketch:type="MSArtboardGroup">
		
			<g id="User-BG-Copy-3-_x2B_-Çıkış-Yap-_x2B_-Shape-Copy-2-Copy" transform="translate(469.000000, 751.000000)" sketch:type="MSLayerGroup">
			<g id="Çıkış-Yap-_x2B_-Shape-Copy-2" transform="translate(97.000000, 12.000000)" sketch:type="MSShapeGroup">
				<path id="Shape-Copy-2" d="M-228.5,500.8c-122.2,0-221.7-99.5-221.7-221.7c0-71.4,34.7-138.8,92.9-180.4
					c15.7-11.2,37.6-7.6,48.8,8.1c11.2,15.7,7.6,37.6-8.1,48.8c-39.8,28.5-63.6,74.6-63.6,123.5c0,83.6,68,151.7,151.7,151.7
					s151.7-68,151.7-151.7c0-48.8-23.8-95-63.6-123.5c-15.7-11.2-19.4-33.1-8.1-48.8c11.2-15.7,33.1-19.4,48.8-8.1
					c58.1,41.6,92.9,109,92.9,180.4C-6.8,401.3-106.2,500.8-228.5,500.8z M-228.5,269.2c-19.3,0-35-15.7-35-35V35.8
					c0-19.3,15.7-35,35-35s35,15.7,35,35v198.4C-193.4,253.5-209.1,269.2-228.5,269.2z"/>
			</g>
		</g>
	</g>
</g>
</svg>
