<?xml version="1.0" encoding="utf-8"?>
<!-- Generator: Adobe Illustrator 19.1.0, SVG Export Plug-In . SVG Version: 6.00 Build 0)  -->
<!DOCTYPE svg PUBLIC "-//W3C//DTD SVG 1.1//EN" "http://www.w3.org/Graphics/SVG/1.1/DTD/svg11.dtd">
<svg version="1.1" id="Layer_1" xmlns="http://www.w3.org/2000/svg" xmlns:xlink="http://www.w3.org/1999/xlink" x="0px" y="0px"
	 width="500px" height="500px" viewBox="-383 1 500 500" style="enable-background:new -383 1 500 500;" xml:space="preserve">
<style type="text/css">
	.st0{fill:#424143;}
</style>
<path class="st0" d="M-253,285.4c16.1-2,30.6-7.5,44-15.9c-40.3-23.9-67.1-70.2-67.1-123c0-39.3,15-74.7,38.6-100.6
	c-9.1-2.5-18.8-4-28.4-4c-61.7,0-112.2,54.8-112.2,122.5c0,63.2,44,115,99.8,121.5l-19.3,12.4h29.5c4.3,5.5,25.2,33.4-0.5,60.3
	c-31.7,32.4-0.5,72.7,0,72.7l4.3-3c-1.1-1.5-29-37.3,0-66.7c25.2-25.9,10.2-53.3,3.2-63.2h27.9L-253,285.4z"/>
<path class="st0" d="M112,163.9C112,96.1,61.6,41.4-0.2,41.4c-9.7,0-19.3,1.5-28.4,4C-4.5,70.7,10,106.6,10,145.9
	c0,53.3-27.4,99.6-67.1,123c12.9,8.5,27.9,13.9,44,15.9l-19.9,12.4h27.4c4.3,5,25.8,33.4-0.5,60.3c-31.7,32.4-0.5,72.7,0,72.7l4.3-3
	c-1.1-1.5-29-37.3,0-66.7c25.2-25.9,10.2-53.8,3.2-63.7H32l-19.3-12.4C68,278.9,112,227.1,112,163.9z"/>
<path class="st0" d="M-4.5,145.9C-4.5,68.7-61.9,6-133.3,6c-70.8,0-128.8,62.7-128.8,139.9c0,72.7,51,132.5,115.9,139.4l-19.3,12.4
	h31.7c5.9,12.4,22.5,52.8-2.1,90.6c-30.6,47.8-1.6,105.1,0,107.6l4.8-2c-0.5-0.5-29.5-57.8,0-103.1c24.7-37.8,10.2-78.2,3.2-93.6
	h26.8l-19.3-12.4C-55.4,278.4-4.5,218.6-4.5,145.9z M-222.4,160.4c-6.4,1-12.3-5-13.4-12.9c-1.1-8,2.7-15.4,9.1-15.9
	c6.4-1,12.3,5,13.4,12.9C-212.2,152.4-215.9,159.4-222.4,160.4z M-179.4,90.7c-11.8,20.9-30.1,33.9-41.3,28.4
	c-11.3-5.5-10.7-26.4,0.5-47.8c11.8-20.9,30.1-33.9,41.3-28.4C-167.6,48.3-168.2,69.7-179.4,90.7z"/>
</svg>
