<?xml version="1.0" encoding="utf-8"?>
<!-- Generator: Adobe Illustrator 19.1.0, SVG Export Plug-In . SVG Version: 6.00 Build 0)  -->
<!DOCTYPE svg PUBLIC "-//W3C//DTD SVG 1.1//EN" "http://www.w3.org/Graphics/SVG/1.1/DTD/svg11.dtd">
<svg version="1.1" id="icons" xmlns="http://www.w3.org/2000/svg" xmlns:xlink="http://www.w3.org/1999/xlink" x="0px" y="0px"
	 width="500px" height="500px" viewBox="100 0 500 500" style="enable-background:new 100 0 500 500;" xml:space="preserve">
<path d="M595,323.9V142.5c0-21.6-17.7-39.2-39.2-39.2H144.2c-21.6,0-39.2,17.7-39.2,39.2v215c0,21.6,17.7,39.2,39.2,39.2h377.9
	L595,323.9z M394.9,214.6v39.5h-59c-5.9-6.4-9-14.6-8.5-22.8c0.5-6.7,3.1-12.6,7.9-16.7L394.9,214.6L394.9,214.6z M176.5,194.9
	v-19.8c0-16.2,13.3-29.3,29.3-29.3h24.6l2.1,2.1c5.9,5.9,9.3,14.7,9.5,24.6c0,8.8-2.6,16.6-7.2,22.6h-58.3V194.9z M176.5,254.1
	v-39.5h58.8c4.6,5.4,7.4,12.6,7.4,20c0,0,0,0,0,0.2c0,7.4-2.8,13.9-7.5,19.3H176.5z M205.8,322.9c-16.2,0-29.3-13.3-29.3-29.3v-19.8
	h59.2c4.4,4.8,6.9,12.6,7,21.6v0.2c0,10.5-3.8,20.5-9.2,24.7l-3.6,2.8h-24.1V322.9z M255.4,322.9c4.3-7.9,6.6-17.7,6.7-27.9
	c0-12.3-3.4-23.3-9.5-31.5c6.1-8.2,9.5-18.2,9.5-28.8v-0.2c0-11-3.6-21.6-10-30.2c6.1-9.2,9.3-20.3,9.3-32.3
	c0-9.5-2.5-18.7-6.7-26.5h110.8c16.2,0,29.3,13.3,29.3,29.3v19.8h-66l-2.5,1.8c-11,7.5-17.7,19.7-18.5,33.4
	c-0.8,12.1,3.1,24.1,10.7,33.8c-7,9.2-11,20.3-11.1,31.8c0,0,0,0,0,0.2c0,9.7,2.6,19,7.7,27h-59.7V322.9z M341.2,322.9l-2.8-2.5
	c-7.4-6.6-11.3-15.4-11.3-24.7l0,0c0-8.2,3.1-15.9,8.8-22.1h59v19.8c0,16.2-13.3,29.3-29.3,29.3h-24.4V322.9z"/>
</svg>
