<?xml version="1.0" encoding="UTF-8" standalone="no"?>
<svg width="500px" height="500px" viewBox="0 0 500 500" version="1.1" xmlns="http://www.w3.org/2000/svg" xmlns:xlink="http://www.w3.org/1999/xlink" xmlns:sketch="http://www.bohemiancoding.com/sketch/ns">
    <!-- Generator: Sketch 3.3.3 (12072) - http://www.bohemiancoding.com/sketch -->
    <title>Shape Copy</title>
    <desc>Created with Sketch.</desc>
    <defs></defs>
    <g id="Page-1" stroke="none" stroke-width="1" fill="none" fill-rule="evenodd" sketch:type="MSPage">
        <g id="Artboard-1" sketch:type="MSArtboardGroup" fill="#000000">
            <path d="M481.584657,205.981319 L335.975188,205.981319 C335.280162,218.773622 330.006563,230.348292 321.567986,238.952426 L465.06474,238.952426 L465.06474,348.789721 L447.917355,288.538308 C445.899835,281.455195 439.414291,276.560144 432.02593,276.560144 L82.5998492,276.560144 L82.5998492,184.867838 L183.814665,184.867838 L183.814665,151.89673 L66.0809559,151.89673 C56.9504237,151.89673 49.561039,159.277102 49.561039,168.382795 L49.561039,276.560144 L16.5222287,276.560144 C11.3438249,276.560144 6.45612407,278.982132 3.34130239,283.103903 C0.21215027,287.233847 -0.786885539,292.579381 0.631827198,297.554109 L47.7676878,463.221744 C51.2213218,475.358242 62.3274064,483.730494 74.9688943,483.728451 L469.83575,483.662054 C485.448756,483.658989 498.102527,471.028083 498.102527,455.448093 L498.102527,222.466362 C498.102527,213.362712 490.716213,205.981319 481.584657,205.981319 Z M499.357334,499.755307 L499.357334,497.507528 C497.712303,499.56264 497.512906,500.477807 499.357334,499.755307 Z M183.314123,103.92789 L216.853475,103.92789 L216.853475,203.188525 C216.853475,213.265669 225.016703,221.420341 235.098162,221.420341 L284.946568,221.420341 C295.046452,221.420341 303.225034,213.26669 303.225034,203.188525 L303.225034,103.92789 L336.748008,103.92789 C342.279554,103.92789 347.296229,100.58757 349.427369,95.4677879 C351.540084,90.3725223 350.381366,84.4804831 346.444592,80.559948 L269.71639,4.01553504 C267.056048,1.3422572 263.53895,0 260.022877,0 C256.522157,0 253.006083,1.3422572 250.326292,4.01553504 L173.633916,80.5609695 C169.681788,84.4815046 168.536377,90.3725223 170.667517,95.4688094 C172.79661,100.588591 177.780529,103.92789 183.314123,103.92789 Z" id="Shape-Copy" sketch:type="MSShapeGroup"></path>
        </g>
    </g>
</svg>